{  
   "apiVersion":"1.0.0",
   "swaggerVersion":"1.2",
   "basePath":"http://127.0.0.1:8000/api",
   "resourcePath":"/frameshift_api",
   "produces":[  
      "application/json"
   ],
   "apis":[  
      {  
         "path":"/signup",
         "operations":[  
            {  
               "nickname": "signup",
               "method":"POST",
               "summary":"Create a new locum",
               "notes":"Returns the new created locum in json",
               "type":"User",
               "parameters":[  
                  {  
                     "email":"email",
                     "description":"The new user email",
                     "required":true,
                     "type":"string",
                     "allowMultiple":false
                  },
                  {  
                     "password":"password",
                     "description":"The new user password",
                     "required":true,
                     "type":"string",
                     "allowMultiple":false
                  }
               ],
               "responseMessages":[  
                  {  
                     "code":400,
                     "message":"unable to signup"
                  }
               ]
            }
         ]
      },
      {  
         "path":"/login",
         "operations":[  
            {  
               "nickname": "login",
               "method":"POST",
               "summary":"Authenticate a locum",
               "notes":"Returns the authenticated locum",
               "type":"User",
               "parameters":[  
                  {  
                     "email":"email",
                     "description":"The user email",
                     "required":true,
                     "type":"string",
                     "allowMultiple":false
                  },
                  {  
                     "password":"password",
                     "description":"The user password",
                     "required":true,
                     "type":"string",
                     "allowMultiple":false
                  }
               ],
               "responseMessages":[  
                  {  
                     "code":400,
                     "message":"unable to login"
                  }
               ]
            }
         ]
      },
      {  
         "path":"/account",
         "operations":[  
            {  
               "nickname": "deleteAccount",
               "method":"DELETE",
               "summary":"Deletes an account",
               "notes":"Returns a message indicating that the account was deleted",
               "type":"User",
               "parameters":[  
                  {  
                     "authentication_token":"authentication_token",
                     "description":"The user authentication_token",
                     "required":true,
                     "type":"string",
                     "allowMultiple":false
                  }
               ],
               "responseMessages":[  
                  {  
                     "code":400,
                     "message":"unable to delete the account"
                  }
               ]
            }
         ]
      },
      {  
         "path":"/password",
         "operations":[  
            {  
               "nickname": "changePassword",
               "method":"POST",
               "summary":"Change the password",
               "notes":"Returns the user in json",
               "type":"User",
               "parameters":[  
                  {  
                     "authentication_token":"authentication_token",
                     "description":"The user authentication_token",
                     "required":true,
                     "type":"string",
                     "allowMultiple":false
                  },
                  {  
                     "new_password":"new_password",
                     "description":"The user new password",
                     "required":true,
                     "type":"string",
                     "allowMultiple":false
                  }
               ],
               "responseMessages":[  
                  {  
                     "code":400,
                     "message":"unable to change thee password"
                  }
               ]
            }
         ]
      },
      {  
         "path":"/reset_password/token",
         "operations":[  
            {  
               "nickname": "forgotPassword",
               "method":"POST",
               "summary":"Returns the reset password token to reset the password",
               "notes":"Returns the reset password token",
               "type":"String",
               "parameters":[  
                  {  
                     "email":"email",
                     "description":"The user email",
                     "required":true,
                     "type":"string",
                     "allowMultiple":false
                  }
               ],
               "responseMessages":[  
                  {  
                     "code":400,
                     "message":"account not found"
                  }
               ]
            }
         ]
      },
      {  
         "path":"/reset_password",
         "operations":[  
            {  
               "nickname": "resetPassword",
               "method":"POST",
               "summary":"Returns the user with the new password",
               "notes":"Returns the user json",
               "type":"String",
               "parameters":[  
                  {  
                     "reset_password_token":"reset_password_token",
                     "description":"The user reset_password_token",
                     "required":true,
                     "type":"string",
                     "allowMultiple":false
                  }
               ],
               "responseMessages":[  
                  {  
                     "code":400,
                     "message":"account not found"
                  }
               ]
            }
         ]
      },
      {  
         "path":"/logout",
         "operations":[  
            {  
               "nickname": "logout",
               "method":"GET",
               "summary":"Logout the user",
               "notes":"Returns the user json",
               "type":"String",
               "parameters":[  
                  {  
                     "authentication_token":"authentication_token",
                     "description":"The user authentication_token",
                     "required":true,
                     "type":"string",
                     "allowMultiple":false
                  }
               ],
               "responseMessages":[  
                  {  
                     "code":400,
                     "message":"account cannot be logged out"
                  }
               ]
            }
         ]
      },
      {  
         "path":"/shifts",
         "operations":[  
            {  
               "nickname": "shifts",
               "method":"GET",
               "summary":"Search for suitable shifts",
               "notes":"Returns a json array of shifts",
               "type":"Shift",
               "parameters":[  
                  {  
                     "authentication_token":"authentication_token",
                     "description":"The user authentication_token",
                     "required":true,
                     "type":"string",
                     "allowMultiple":false
                  },
                  {  
                     "criteria":"criteria",
                     "description":"A search keyword",
                     "required":false,
                     "type":"string",
                     "allowMultiple":false
                  },
                  {  
                     "date":"date",
                     "description":"A date when the shift should be valid",
                     "required":false,
                     "type":"date",
                     "allowMultiple":false
                  },
                  {  
                     "startDate":"startDate",
                     "description":"A shift starting before this date",
                     "required":false,
                     "type":"date",
                     "allowMultiple":false
                  },
                  {  
                     "rate":"rate",
                     "description":"Minimum hourly rate",
                     "required":false,
                     "type":"number",
                     "allowMultiple":false
                  },
                  {  
                     "postcode":"postcode",
                     "description":"Search for trusts nearby the postcode",
                     "required":false,
                     "type":"string",
                     "allowMultiple":false
                  }
               ],
               "responseMessages":[  
                  {  
                     "code":400,
                     "message":"cannot retrieve shifts"
                  }
               ]
            }
         ]
      },
      {  
         "path":"/shift",
         "operations":[  
            {  
               "nickname": "shift",
               "method":"POST",
               "summary":"Creates a new shift",
               "notes":"Creates a new shift",
               "type":"Shift",
               "parameters":[  
                  {  
                     "name":"name",
                     "description":"The shift name",
                     "required":true,
                     "type":"string",
                     "allowMultiple":false
                  },
                  {  
                     "startDate":"startDate",
                     "description":"A shfit start date",
                     "required":true,
                     "type":"date",
                     "allowMultiple":false
                  },
                  {  
                     "endDate":"endDate",
                     "description":"A shift end date",
                     "required":true,
                     "type":"date",
                     "allowMultiple":false
                  },
                  {  
                     "address":"address",
                     "description":"A shift address",
                     "required":false,
                     "type":"date",
                     "allowMultiple":false
                  },
                  {  
                     "hospital":"hospital",
                     "description":"A shift hospital",
                     "required":false,
                     "type":"string",
                     "allowMultiple":false
                  },
                  {  
                     "spacialism":"spacialism",
                     "description":"Speciality needed",
                     "required":false,
                     "type":"string",
                     "allowMultiple":false
                  },
                  {  
                     "grade":"grade",
                     "description":"Grade needed",
                     "required":false,
                     "type":"string",
                     "allowMultiple":false
                  },
                  {  
                     "owner":"owner",
                     "description":"The trust manager",
                     "required":false,
                     "type":"string",
                     "allowMultiple":false
                  },
                  {  
                     "trust":"trust",
                     "description":"The trust managing the shift",
                     "required":false,
                     "type":"string",
                     "allowMultiple":false
                  },
                  {  
                     "description":"description",
                     "description":"A shift description",
                     "required":false,
                     "type":"string",
                     "allowMultiple":false
                  },
                  {  
                     "hourly_rate":"hourly_rate",
                     "description":"The hourly rate",
                     "required":false,
                     "type":"number",
                     "allowMultiple":false
                  }
				  
               ],
               "responseMessages":[  
                  {  
                     "code":400,
                     "message":"shift cannot be created"
                  }
               ]
            }
         ]
      },
      {  
         "path":"/hospital",
         "operations":[  
            {  
               "nickname": "hospital",
               "method":"POST",
               "summary":"Creates a new hospital",
               "notes":"Creates a new hospital",
               "type":"Hospital",
               "parameters":[  
                  {  
                     "name":"name",
                     "description":"The shift hospital",
                     "required":true,
                     "type":"string",
                     "allowMultiple":false
                  }
               ],
               "responseMessages":[  
                  {  
                     "code":400,
                     "message":"hospital cannot be created"
                  }
               ]
            }
         ]
      },
      {  
         "path":"/shifts/:id",
         "operations":[  
            {  
               "nickname": "shifts/:id",
               "method":"GET",
               "summary":"Read a shift by id",
               "notes":"View a selected shift",
               "type":"Shift",
               "parameters":[  
                  {  
                     "id":"id",
                     "description":"The shift id",
                     "required":true,
                     "type":"string",
                     "allowMultiple":false
                  }
               ],
               "responseMessages":[  
                  {  
                     "code":400,
                     "message":"shift not found"
                  }
               ]
            }
         ]
      },
      {  
         "path":"/shifts/:id",
         "operations":[  
            {  
               "nickname": "shifts/:id",
               "method":"PUT",
               "summary":"Upadtes a existing shift",
               "notes":"Updates a existing shift",
               "type":"Shift",
               "parameters":[  
                  {  
                     "name":"name",
                     "description":"The shift name",
                     "required":true,
                     "type":"string",
                     "allowMultiple":false
                  },
                  {  
                     "startDate":"startDate",
                     "description":"A shfit start date",
                     "required":true,
                     "type":"date",
                     "allowMultiple":false
                  },
                  {  
                     "endDate":"endDate",
                     "description":"A shift end date",
                     "required":true,
                     "type":"date",
                     "allowMultiple":false
                  },
                  {  
                     "address":"address",
                     "description":"A shift address",
                     "required":false,
                     "type":"date",
                     "allowMultiple":false
                  },
                  {  
                     "hospital":"hospital",
                     "description":"A shift hospital",
                     "required":false,
                     "type":"string",
                     "allowMultiple":false
                  },
                  {  
                     "spacialism":"spacialism",
                     "description":"Speciality needed",
                     "required":false,
                     "type":"string",
                     "allowMultiple":false
                  },
                  {  
                     "grade":"grade",
                     "description":"Grade needed",
                     "required":false,
                     "type":"string",
                     "allowMultiple":false
                  },
                  {  
                     "owner":"owner",
                     "description":"The trust manager",
                     "required":false,
                     "type":"string",
                     "allowMultiple":false
                  },
                  {  
                     "trust":"trust",
                     "description":"The trust managing the shift",
                     "required":false,
                     "type":"string",
                     "allowMultiple":false
                  },
                  {  
                     "description":"description",
                     "description":"A shift description",
                     "required":false,
                     "type":"string",
                     "allowMultiple":false
                  },
                  {  
                     "hourly_rate":"hourly_rate",
                     "description":"The hourly rate",
                     "required":false,
                     "type":"number",
                     "allowMultiple":false
                  }
				  
               ],
               "responseMessages":[  
                  {  
                     "code":400,
                     "message":"shift cannot be updated"
                  }
               ]
            }
         ]
      },
      {  
         "path":"/shifts/:id",
         "operations":[  
            {  
               "nickname": "shifts/:id",
               "method":"DELETE",
               "summary":"Deletes a shift by id",
               "notes":"Deletes a selected shift",
               "type":"Shift",
               "parameters":[  
                  {  
                     "id":"id",
                     "description":"The shift id",
                     "required":true,
                     "type":"string",
                     "allowMultiple":false
                  }
               ],
               "responseMessages":[  
                  {  
                     "code":400,
                     "message":"shift not found"
                  }
               ]
            }
         ]
      },
      {  
         "path":"/shifts/:id/apply",
         "operations":[  
            {  
               "nickname": "shifts/:id/apply",
               "method":"POST",
               "summary":"Apply for a shift",
               "notes":"Apply for a shift",
               "type":"Shift",
               "parameters":[  
                  {  
                     "id":"id",
                     "description":"The shift id",
                     "required":true,
                     "type":"string",
                     "allowMultiple":false
                  }
               ],
               "responseMessages":[  
                  {  
                     "code":400,
                     "message":"shift not found"
                  }
               ]
            }
         ]
      },
      {  
         "path":"/shifts/:id/withdraw",
         "operations":[  
            {  
               "nickname": "shifts/:id/withdraw",
               "method":"POST",
               "summary":"Withdraw a shift application",
               "notes":"Withdraw a shift application",
               "type":"Shift",
               "parameters":[  
                  {  
                     "id":"id",
                     "description":"The shift id",
                     "required":true,
                     "type":"string",
                     "allowMultiple":false
                  }
               ],
               "responseMessages":[  
                  {  
                     "code":400,
                     "message":"shift not found"
                  }
               ]
            }
         ]
      },
      {  
         "path":"/shifts/:id/applications",
         "operations":[  
            {  
               "nickname": "shifts/:id/applications",
               "method":"GET",
               "summary":"Returns all shift applications",
               "notes":"Returns all shift applications",
               "type":"Shift",
               "parameters":[  
                  {  
                     "id":"id",
                     "description":"The shift id",
                     "required":true,
                     "type":"string",
                     "allowMultiple":false
                  }
               ],
               "responseMessages":[  
                  {  
                     "code":400,
                     "message":"shift not found"
                  }
               ]
            }
         ]
      },
      {  
         "path":"/trusts",
         "operations":[  
            {  
               "nickname": "trusts",
               "method":"POST",
               "summary":"Creates a new trust",
               "notes":"Creates a new trust",
               "type":"Trust",
               "parameters":[  
                  {  
                     "name":"name",
                     "description":"The trust name",
                     "required":true,
                     "type":"string",
                     "allowMultiple":false
                  },
                  {  
                     "latitude":"latitude",
                     "description":"The trust location latitude",
                     "required":true,
                     "type":"string",
                     "allowMultiple":false
                  },
                  {  
                     "longitude":"longitude",
                     "description":"The trust location longitude",
                     "required":true,
                     "type":"string",
                     "allowMultiple":false
                  }
               ],
               "responseMessages":[  
                  {  
                     "code":400,
                     "message":"trust cannot be created"
                  }
               ]
            }
         ]
      },
      {  
         "path":"/requests/:id/approve",
         "operations":[  
            {  
               "nickname": "requests/:id/approve",
               "method":"POST",
               "summary":"Accept a shift request",
               "notes":"Accept a shift request",
               "type":"Request",
               "parameters":[  
                  {  
                     "id":"id",
                     "description":"The request id",
                     "required":true,
                     "type":"string",
                     "allowMultiple":false
                  }
               ],
               "responseMessages":[  
                  {  
                     "code":400,
                     "message":"request not found"
                  }
               ]
            }
         ]
      },
      {  
         "path":"/requests/:id/reject",
         "operations":[  
            {  
               "nickname": "requests/:id/reject",
               "method":"POST",
               "summary":"Reject a shift request",
               "notes":"Reject a shift request",
               "type":"Request",
               "parameters":[  
                  {  
                     "id":"id",
                     "description":"The request id",
                     "required":true,
                     "type":"string",
                     "allowMultiple":false
                  }
               ],
               "responseMessages":[  
                  {  
                     "code":400,
                     "message":"request not found"
                  }
               ]
            }
         ]
      }
   ],
   "models":{  
      "User":{  
         "id":"User",
         "properties":{  
            "id":{  
               "type":"integer",
               "format":"int64"
            },
            "email":{  
               "type":"string"
            },
            "password":{  
               "type":"string"
            },
            "authentication_token":{  
               "type":"string"
            },
            "role":{  
               "type":"string"
            },
            "reset_password_token":{  
               "type":"string"
            },
            "requests":{  
               "type":"array"
            },
            "ownedShifts":{  
               "type":"array"
            }
         }
      },
      "Shift":{  
         "id":"Shift",
         "properties":{  
            "id":{  
               "type":"integer",
               "format":"int64"
            },
            "startDate":{  
               "type":"date"
            },
            "endDate":{  
               "type":"date"
            },
            "rate":{  
               "type":"int"
            },
            "hospital":{  
               "type":"Hospital"
            },
            "owner":{  
               "type":"User"
            },
            "specialism":{  
               "type":"string"
            },
            "grade":{  
               "type":"string"
            },
            "address":{  
               "type":"string"
            },
            "description":{  
               "type":"string"
            },
            "requests":{  
               "type":"array"
            },
            "trust":{  
               "type":"Trust"
            },
            "hourly_rate":{  
               "type":"number"
            }
         }
      },
      "Hospital":{  
         "id":"Hospital",
         "properties":{  
            "id":{  
               "type":"integer",
               "format":"int64"
            },
            "name":{  
               "type":"string"
            }
         }
      },
      "Trust":{  
         "id":"Trust",
         "properties":{  
            "id":{  
               "type":"integer",
               "format":"int64"
            },
            "name":{  
               "type":"string"
            },
            "latitude":{  
               "type":"number"
            },
            "longitude":{  
               "type":"number"
            }
         }
      },
      "Request":{  
         "id":"Request",
         "properties":{  
            "id":{  
               "type":"integer",
               "format":"int64"
            },
            "status":{  
               "type":"string"
            },
            "shift":{  
               "type":"Shift"
            },
            "locum":{  
               "type":"User"
            }
         }
      }
   }
}